[
  {
    "variable_type": "env_var",
    "key": "architectures",
    "value": "x86_64"
  },
  {
    "variable_type": "env_var",
    "key": "artifacts_visibility",
    "value": "public"
  },
  {
    "variable_type": "env_var",
    "key": "branch",
    "value": "master"
  },
  {
    "variable_type": "env_var",
    "key": "build_selftests",
    "value": "true"
  },
  {
    "variable_type": "env_var",
    "key": "builder_image",
    "value": "registry.gitlab.com/cki-project/containers/builder-fedora"
  },
  {
    "variable_type": "env_var",
    "key": "cki_pipeline_branch",
    "value": "mainline.kernel.org-3fe0e332-ea5c-402b-bc69-c784212a688f"
  },
  {
    "variable_type": "env_var",
    "key": "cki_pipeline_id",
    "value": "4f90e549b3476aa579c58116aa07f54866d526512581c3b1d598ac9c9542897e"
  },
  {
    "variable_type": "env_var",
    "key": "cki_pipeline_type",
    "value": "retrigger-baseline"
  },
  {
    "variable_type": "env_var",
    "key": "cki_project",
    "value": "cki-project/cki-pipeline"
  },
  {
    "variable_type": "env_var",
    "key": "commit_hash",
    "value": "3650b228f83adda7e5ee532e2b90429c03f7b9ec"
  },
  {
    "variable_type": "env_var",
    "key": "config_target",
    "value": "olddefconfig"
  },
  {
    "variable_type": "env_var",
    "key": "discovery_time",
    "value": "2020-10-25T22:20:16.182781Z"
  },
  {
    "variable_type": "env_var",
    "key": "git_url",
    "value": "https://git.kernel.org/pub/scm/linux/kernel/git/torvalds/linux.git"
  },
  {
    "variable_type": "env_var",
    "key": "kernel_type",
    "value": "upstream"
  },
  {
    "variable_type": "env_var",
    "key": "mail_from",
    "value": "CKI Project <cki-project@redhat.com>"
  },
  {
    "variable_type": "env_var",
    "key": "make_target",
    "value": "targz-pkg"
  },
  {
    "variable_type": "env_var",
    "key": "name",
    "value": "mainline.kernel.org"
  },
  {
    "variable_type": "env_var",
    "key": "original_pipeline",
    "value": "https://gitlab/cki-project/cki-pipeline/-/pipelines/615884"
  },
  {
    "variable_type": "env_var",
    "key": "report_template",
    "value": "full"
  },
  {
    "variable_type": "env_var",
    "key": "report_types",
    "value": "email"
  },
  {
    "variable_type": "env_var",
    "key": "require_manual_review",
    "value": "False"
  },
  {
    "variable_type": "env_var",
    "key": "retrigger",
    "value": "true"
  },
  {
    "variable_type": "env_var",
    "key": "selftest_subsets",
    "value": "net bpf"
  },
  {
    "variable_type": "env_var",
    "key": "skip_beaker",
    "value": "true"
  },
  {
    "variable_type": "env_var",
    "key": "skip_rhcheckpatch",
    "value": "true"
  },
  {
    "variable_type": "env_var",
    "key": "subject",
    "value": "Retrigger: Baseline: mainline.kernel.org master:3650b228f83a"
  },
  {
    "variable_type": "env_var",
    "key": "test_set",
    "value": "kt1"
  },
  {
    "variable_type": "env_var",
    "key": "title",
    "value": "Retrigger: retrigger-baseline"
  },
  {
    "variable_type": "env_var",
    "key": "tree_name",
    "value": "upstream"
  }
]
