{
    "id": 567899,
    "sha": "c783244cf6a6bacc63f70872cf4bff0d2aabc74a",
    "ref": "mainline.kernel.org",
    "status": "success",
    "created_at": "2020-05-14T20:29:50.757Z",
    "updated_at": "2020-05-15T01:36:22.952Z",
    "web_url": "https://gitlab/cki-project/cki-pipeline/pipelines/567899",
    "before_sha": "0000000000000000000000000000000000000000",
    "tag": false,
    "yaml_errors": null,
    "user": {
        "id": 34,
        "name": "CKI Bot",
        "username": "cki-bot",
        "state": "active",
        "avatar_url": "https://secure.gravatar.com/avatar/1d5811382e7ef0cd8f30ebbe1c252eba?s=80&d=identicon",
        "web_url": "https://gitlab/cki-bot"
    },
    "started_at": "2020-05-14T20:29:52.697Z",
    "finished_at": "2020-05-15T01:36:22.946Z",
    "committed_at": null,
    "duration": 18379,
    "coverage": null,
    "detailed_status": {
        "icon": "status_success",
        "text": "passed",
        "label": "passed",
        "group": "success",
        "tooltip": "passed",
        "has_details": true,
        "details_path": "/cki-project/cki-pipeline/pipelines/567899",
        "illustration": null,
        "favicon": "/assets/ci_favicons/favicon_status_success-8451333011eee8ce9f2ab25dc487fe24a8758c694827a582f17f42b0a90446a2.png"
    }
}
