[
    {
        "variable_type": "env_var",
        "key": "ARTIFACT_URL_aarch64",
        "value": "https://gitlab/cki-project/cki-pipeline/-/jobs/924648/artifacts/download"
    },
    {
        "variable_type": "env_var",
        "key": "ARTIFACT_URL_ppc64le",
        "value": "https://gitlab/cki-project/cki-pipeline/-/jobs/924649/artifacts/download"
    },
    {
        "variable_type": "env_var",
        "key": "ARTIFACT_URL_s390x",
        "value": "https://gitlab/cki-project/cki-pipeline/-/jobs/924650/artifacts/download"
    },
    {
        "variable_type": "env_var",
        "key": "ARTIFACT_URL_x86_64",
        "value": "https://gitlab/cki-project/cki-pipeline/-/jobs/924647/artifacts/download"
    },
    {
        "variable_type": "env_var",
        "key": "ARTIFACT_URL_x86_64_debug",
        "value": "https://gitlab/cki-project/cki-pipeline/-/jobs/924646/artifacts/download"
    },
    {
        "variable_type": "env_var",
        "key": "architectures",
        "value": "aarch64 ppc64le x86_64 s390x"
    },
    {
        "variable_type": "env_var",
        "key": "artifacts_visibility",
        "value": "public"
    },
    {
        "variable_type": "env_var",
        "key": "branch",
        "value": "queue/5.7"
    },
    {
        "variable_type": "env_var",
        "key": "builder_image",
        "value": "registry.gitlab.com/cki-project/containers/builder-fedora"
    },
    {
        "variable_type": "env_var",
        "key": "cki_pipeline_branch",
        "value": "upstream-stable"
    },
    {
        "variable_type": "env_var",
        "key": "cki_pipeline_id",
        "value": "2803077d4d0272d237c1ae5df9212dd2bb8d6a997aeecd83828b78153d502b7b"
    },
    {
        "variable_type": "env_var",
        "key": "cki_pipeline_type",
        "value": "retrigger-baseline"
    },
    {
        "variable_type": "env_var",
        "key": "cki_project",
        "value": "cki-project/cki-pipeline"
    },
    {
        "variable_type": "env_var",
        "key": "commit_hash",
        "value": "4bae056c55ac3865f5529d014621db0fafe0fcd7"
    },
    {
        "variable_type": "env_var",
        "key": "config_target",
        "value": "olddefconfig"
    },
    {
        "variable_type": "env_var",
        "key": "git_url",
        "value": "https://git.kernel.org/pub/scm/linux/kernel/git/stable/linux-stable-rc.git"
    },
    {
        "variable_type": "env_var",
        "key": "kernel_type",
        "value": "upstream"
    },
    {
        "variable_type": "env_var",
        "key": "mail_from",
        "value": "CKI Project <cki-project@redhat.com>"
    },
    {
        "variable_type": "env_var",
        "key": "make_target",
        "value": "targz-pkg"
    },
    {
        "variable_type": "env_var",
        "key": "name",
        "value": "stable-queue"
    },
    {
        "variable_type": "env_var",
        "key": "original_pipeline",
        "value": "https://gitlab/cki-project/cki-pipeline/pipelines/609120"
    },
    {
        "variable_type": "env_var",
        "key": "report_template",
        "value": "limited"
    },
    {
        "variable_type": "env_var",
        "key": "report_types",
        "value": "email"
    },
    {
        "variable_type": "env_var",
        "key": "require_manual_review",
        "value": "True"
    },
    {
        "variable_type": "env_var",
        "key": "retrigger",
        "value": "true"
    },
    {
        "variable_type": "env_var",
        "key": "skip_beaker",
        "value": "false"
    },
    {
        "variable_type": "env_var",
        "key": "skip_build",
        "value": "true"
    },
    {
        "variable_type": "env_var",
        "key": "skip_createrepo",
        "value": "true"
    },
    {
        "variable_type": "env_var",
        "key": "skip_merge",
        "value": "true"
    },
    {
        "variable_type": "env_var",
        "key": "skip_rhcheckpatch",
        "value": "true"
    },
    {
        "variable_type": "env_var",
        "key": "subject",
        "value": "Retrigger: Baseline: stable-queue queue/5.7:4bae056c55ac"
    },
    {
        "variable_type": "env_var",
        "key": "suites_zip_url",
        "value": "https://gitlab.com/api/v4/projects/19675058/repository/archive.zip?sha=2450560f23d253a3ed220f0cd22c02a335fdfd85"
    },
    {
        "variable_type": "env_var",
        "key": "test_set",
        "value": "kt1"
    },
    {
        "variable_type": "env_var",
        "key": "title",
        "value": "Retrigger: retrigger-baseline"
    },
    {
        "variable_type": "env_var",
        "key": "tree_name",
        "value": "upstream"
    }
]
